<?xml version="1.0" encoding="utf-8"?>
<!-- Generator: Adobe Illustrator 19.0.0, SVG Export Plug-In . SVG Version: 6.00 Build 0)  -->
<svg version="1.1" id="Layer_1" xmlns="http://www.w3.org/2000/svg" xmlns:xlink="http://www.w3.org/1999/xlink" x="0px" y="0px"
	 viewBox="0 0 500 500" style="enable-background:new 0 0 500 500;" xml:space="preserve">
<style type="text/css">
	.st0{fill:#5D5D5D;}
	.st1{fill:url(#XMLID_1091_);}
	.st2{fill:url(#XMLID_1092_);}
	.st3{fill:url(#XMLID_1093_);}
	.st4{fill:url(#XMLID_1094_);}
	.st5{fill:url(#XMLID_1095_);}
	.st6{fill:url(#XMLID_1096_);}
	.st7{fill:url(#XMLID_1097_);}
	.st8{fill:url(#XMLID_1098_);}
	.st9{fill:#FFFFFF;}
	.st10{opacity:0.9;fill:url(#XMLID_1099_);}
	.st11{fill:none;stroke:#5D5D5D;stroke-width:18;stroke-miterlimit:10;}
	.st12{fill:none;stroke:#5D5D5D;stroke-width:21;stroke-linecap:round;stroke-linejoin:round;stroke-miterlimit:10;}
	.st13{opacity:0.9;}
	.st14{fill:url(#XMLID_1100_);}
	.st15{fill:url(#XMLID_1101_);}
	.st16{fill:url(#XMLID_1102_);}
	.st17{fill:url(#XMLID_1103_);}
	.st18{fill:url(#XMLID_1104_);}
	.st19{fill:url(#XMLID_1105_);}
	.st20{fill:url(#XMLID_1106_);}
	.st21{fill:url(#XMLID_1107_);}
	.st22{fill:url(#XMLID_1108_);}
	.st23{fill:url(#XMLID_1109_);}
	.st24{fill:url(#XMLID_1110_);}
	.st25{fill:url(#XMLID_1111_);}
	.st26{fill:url(#XMLID_1112_);}
	.st27{fill:url(#XMLID_1113_);}
	.st28{fill:url(#XMLID_1114_);}
	.st29{fill:url(#XMLID_1115_);}
	.st30{fill:url(#XMLID_1116_);}
	.st31{fill:none;stroke:#58595B;stroke-width:9;stroke-miterlimit:10;}
	.st32{fill:url(#XMLID_1117_);}
	.st33{fill:url(#XMLID_1118_);}
</style>
</svg>
