<?xml version="1.0" encoding="utf-8"?>
<!-- Generator: Adobe Illustrator 19.0.0, SVG Export Plug-In . SVG Version: 6.00 Build 0)  -->
<svg version="1.1" id="Layer_1" xmlns="http://www.w3.org/2000/svg" xmlns:xlink="http://www.w3.org/1999/xlink" x="0px" y="0px"
	 viewBox="0 0 500 500" style="enable-background:new 0 0 500 500;" xml:space="preserve">
<style type="text/css">
	.st0{fill:#5D5D5D;}
	.st1{fill:url(#XMLID_1286_);}
	.st2{fill:url(#XMLID_1287_);}
	.st3{fill:url(#XMLID_1288_);}
	.st4{fill:url(#XMLID_1289_);}
	.st5{fill:url(#XMLID_1290_);}
	.st6{fill:url(#XMLID_1291_);}
	.st7{fill:url(#XMLID_1292_);}
	.st8{fill:url(#XMLID_1293_);}
	.st9{fill:#FFFFFF;}
	.st10{opacity:0.9;fill:url(#XMLID_1294_);}
	.st11{fill:none;stroke:#5D5D5D;stroke-width:18;stroke-miterlimit:10;}
	.st12{fill:none;stroke:#5D5D5D;stroke-width:21;stroke-linecap:round;stroke-linejoin:round;stroke-miterlimit:10;}
	.st13{opacity:0.9;}
	.st14{fill:url(#XMLID_1295_);}
	.st15{fill:url(#XMLID_1296_);}
	.st16{fill:url(#XMLID_1297_);}
	.st17{fill:url(#XMLID_1298_);}
	.st18{fill:url(#XMLID_1299_);}
	.st19{fill:url(#XMLID_1300_);}
	.st20{fill:url(#XMLID_1301_);}
	.st21{fill:url(#XMLID_1302_);}
	.st22{fill:url(#XMLID_1303_);}
	.st23{fill:url(#XMLID_1304_);}
	.st24{fill:url(#XMLID_1305_);}
	.st25{fill:url(#XMLID_1306_);}
	.st26{fill:url(#XMLID_1307_);}
	.st27{fill:url(#XMLID_1308_);}
	.st28{fill:url(#XMLID_1309_);}
	.st29{fill:url(#XMLID_1310_);}
	.st30{fill:url(#XMLID_1311_);}
	.st31{fill:none;stroke:#58595B;stroke-width:9;stroke-miterlimit:10;}
	.st32{fill:url(#XMLID_1312_);}
	.st33{fill:url(#XMLID_1313_);}
</style>
</svg>
