<?xml version="1.0" encoding="utf-8"?>
<!-- Generator: Adobe Illustrator 19.0.0, SVG Export Plug-In . SVG Version: 6.00 Build 0)  -->
<svg version="1.1" id="Layer_1" xmlns="http://www.w3.org/2000/svg" xmlns:xlink="http://www.w3.org/1999/xlink" x="0px" y="0px"
	 viewBox="0 0 500 500" style="enable-background:new 0 0 500 500;" xml:space="preserve">
<style type="text/css">
	.st0{fill:#5D5D5D;}
	.st1{fill:url(#XMLID_1169_);}
	.st2{fill:url(#XMLID_1170_);}
	.st3{fill:url(#XMLID_1171_);}
	.st4{fill:url(#XMLID_1172_);}
	.st5{fill:url(#XMLID_1173_);}
	.st6{fill:url(#XMLID_1174_);}
	.st7{fill:url(#XMLID_1175_);}
	.st8{fill:url(#XMLID_1176_);}
	.st9{fill:#FFFFFF;}
	.st10{opacity:0.9;fill:url(#XMLID_1177_);}
	.st11{fill:none;stroke:#5D5D5D;stroke-width:18;stroke-miterlimit:10;}
	.st12{fill:none;stroke:#5D5D5D;stroke-width:21;stroke-linecap:round;stroke-linejoin:round;stroke-miterlimit:10;}
	.st13{opacity:0.9;}
	.st14{fill:url(#XMLID_1178_);}
	.st15{fill:url(#XMLID_1179_);}
	.st16{fill:url(#XMLID_1180_);}
	.st17{fill:url(#XMLID_1181_);}
	.st18{fill:url(#XMLID_1182_);}
	.st19{fill:url(#XMLID_1183_);}
	.st20{fill:url(#XMLID_1184_);}
	.st21{fill:url(#XMLID_1185_);}
	.st22{fill:url(#XMLID_1186_);}
	.st23{fill:url(#XMLID_1187_);}
	.st24{fill:url(#XMLID_1188_);}
	.st25{fill:url(#XMLID_1189_);}
	.st26{fill:url(#XMLID_1190_);}
	.st27{fill:url(#XMLID_1191_);}
	.st28{fill:url(#XMLID_1192_);}
	.st29{fill:url(#XMLID_1193_);}
	.st30{fill:url(#XMLID_1194_);}
	.st31{fill:none;stroke:#58595B;stroke-width:9;stroke-miterlimit:10;}
	.st32{fill:url(#XMLID_1195_);}
	.st33{fill:url(#XMLID_1196_);}
</style>
</svg>
