<?xml version="1.0" encoding="utf-8"?>
<!-- Generator: Adobe Illustrator 19.0.0, SVG Export Plug-In . SVG Version: 6.00 Build 0)  -->
<svg version="1.1" id="Layer_1" xmlns="http://www.w3.org/2000/svg" xmlns:xlink="http://www.w3.org/1999/xlink" x="0px" y="0px"
	 viewBox="0 0 500 500" style="enable-background:new 0 0 500 500;" xml:space="preserve">
<style type="text/css">
	.st0{fill:#5D5D5D;}
	.st1{fill:url(#XMLID_1234_);}
	.st2{fill:url(#XMLID_1235_);}
	.st3{fill:url(#XMLID_1236_);}
	.st4{fill:url(#XMLID_1237_);}
	.st5{fill:url(#XMLID_1238_);}
	.st6{fill:url(#XMLID_1239_);}
	.st7{fill:url(#XMLID_1240_);}
	.st8{fill:url(#XMLID_1241_);}
	.st9{fill:#FFFFFF;}
	.st10{opacity:0.9;fill:url(#XMLID_1242_);}
	.st11{fill:none;stroke:#5D5D5D;stroke-width:18;stroke-miterlimit:10;}
	.st12{fill:none;stroke:#5D5D5D;stroke-width:21;stroke-linecap:round;stroke-linejoin:round;stroke-miterlimit:10;}
	.st13{opacity:0.9;}
	.st14{fill:url(#XMLID_1243_);}
	.st15{fill:url(#XMLID_1244_);}
	.st16{fill:url(#XMLID_1245_);}
	.st17{fill:url(#XMLID_1246_);}
	.st18{fill:url(#XMLID_1247_);}
	.st19{fill:url(#XMLID_1248_);}
	.st20{fill:url(#XMLID_1249_);}
	.st21{fill:url(#XMLID_1250_);}
	.st22{fill:url(#XMLID_1251_);}
	.st23{fill:url(#XMLID_1252_);}
	.st24{fill:url(#XMLID_1253_);}
	.st25{fill:url(#XMLID_1254_);}
	.st26{fill:url(#XMLID_1255_);}
	.st27{fill:url(#XMLID_1256_);}
	.st28{fill:url(#XMLID_1257_);}
	.st29{fill:url(#XMLID_1258_);}
	.st30{fill:url(#XMLID_1259_);}
	.st31{fill:none;stroke:#58595B;stroke-width:9;stroke-miterlimit:10;}
	.st32{fill:url(#XMLID_1260_);}
	.st33{fill:url(#XMLID_1261_);}
</style>
</svg>
